[gd_resource type="DynamicFont" load_steps=2 format=2]

[ext_resource path="res://Assets/UI Space Pack/Fonts/kenvector_future.ttf" type="DynamicFontData" id=1]


[resource]
font_data = ExtResource( 1 )
