[gd_scene load_steps=5 format=2]

[ext_resource path="res://Assets/UI Space Pack/PNG/metalPanel_blue.png" type="Texture" id=1]
[ext_resource path="res://GUI/Window.gd" type="Script" id=2]
[ext_resource path="res://Assets/UI Space Pack/Fonts/kenvector_future_thin.ttf" type="DynamicFontData" id=3]


[sub_resource type="DynamicFont" id=1]
size = 42
outline_color = Color( 0.811765, 0.811765, 0.811765, 1 )
font_data = ExtResource( 3 )

[node name="Window" type="NinePatchRect"]
anchor_left = 0.5
anchor_top = 0.5
anchor_right = 0.5
anchor_bottom = 0.5
margin_left = 234.362
margin_top = -200.0
margin_right = 634.362
margin_bottom = 200.0
mouse_filter = 1
mouse_default_cursor_shape = 2
texture = ExtResource( 1 )
region_rect = Rect2( 0, 0, 100, 100 )
patch_margin_left = 4
patch_margin_top = 17
patch_margin_right = 4
patch_margin_bottom = 4
script = ExtResource( 2 )
__meta__ = {
"_edit_use_anchors_": false
}
anim_duration = 0.32

[node name="Title_text" type="Label" parent="."]
anchor_left = 0.5
anchor_right = 0.5
margin_left = -196.228
margin_top = 14.7723
margin_right = 193.772
margin_bottom = 73.7723
custom_fonts/font = SubResource( 1 )
custom_constants/shadow_offset_y = 4
text = "Iniciar Juego"
align = 1
__meta__ = {
"_edit_use_anchors_": false,
"_editor_description_": ""
}

[node name="Tween" type="Tween" parent="."]
[connection signal="mouse_entered" from="." to="." method="_on_Window_mouse_entered"]
[connection signal="mouse_exited" from="." to="." method="_on_Window_mouse_exited"]
[connection signal="window_changed" from="." to="." method="_on_Window_window_changed"]
